Stroop_Effect_Analysis
…
Analysis of Stroop Effect

In this analysis, I will apply descriptive statistics and inferential statistics to scruitnize the Stroop Effect.

The dataset I used, contains 24 oberservations of the time taken in both congruent and incongruent conditions.

This is how the dataset looks like.

## # A tibble: 24 x 3
##    Congruent Incongruent Difference
##        <dbl>       <dbl>      <dbl>
##  1    12.079      19.278      7.199
##  2    16.791      18.741      1.950
##  3     9.564      21.214     11.650
##  4     8.630      15.687      7.057
##  5    14.669      22.803      8.134
##  6    12.238      20.878      8.640
##  7    14.692      24.572      9.880
##  8     8.987      17.394      8.407
##  9     9.401      20.762     11.361
## 10    14.480      26.282     11.802
## # ... with 14 more rows
…
